############################################
#REGISTER ADDRESSES BEFORE INJECTION TEST: #
############################################
Tx
[F8 A1 00 00 00 06 01] 03 00 00 00 28 

Rx
[F8 A1 00 00 00 53 01] 03 50 00 01 00 00 00 00 00 00 00 00 00 00 00 00 00 00 00 00 00 00 00 00 00 00 00 00 00 00 00 00 00 00 00 00 00 00 00 00 00 00 00 00 00 00 00 00 00 00 00 00 00 00 00 00 00 00 00 00 00 00 00 00 00 00 00 00 00 00 00 00 00 00 00 00 00 00 00 00 00 00 

values:
  1 (ad 00000):     1
  2 (ad 00001):     0
  3 (ad 00002):     0
  4 (ad 00003):     0
  5 (ad 00004):     0
  6 (ad 00005):     0
  7 (ad 00006):     0
  8 (ad 00007):     0
  9 (ad 00008):     0
 10 (ad 00009):     0
 11 (ad 00010):     0
 12 (ad 00011):     0
 13 (ad 00012):     0
 14 (ad 00013):     0
 15 (ad 00014):     0
 16 (ad 00015):     0
 17 (ad 00016):     0
 18 (ad 00017):     0
 19 (ad 00018):     0
 20 (ad 00019):     0
 21 (ad 00020):     0
 22 (ad 00021):     0
 23 (ad 00022):     0
 24 (ad 00023):     0
 25 (ad 00024):     0
 26 (ad 00025):     0
 27 (ad 00026):     0
 28 (ad 00027):     0
 29 (ad 00028):     0
 30 (ad 00029):     0
 31 (ad 00030):     0
 32 (ad 00031):     0
 33 (ad 00032):     0
 34 (ad 00033):     0
 35 (ad 00034):     0
 36 (ad 00035):     0
 37 (ad 00036):     0
 38 (ad 00037):     0
 39 (ad 00038):     0
 40 (ad 00039):     0

TESTED VALUE: 777
#####################################
#NEW VALUES WRITTEN TO REGISTER(S): #
#####################################
Tx
[DC D4 00 00 00 06 01] 06 00 00 03 09 

Rx
[DC D4 00 00 00 06 01] 06 00 00 03 09 

word write ok
Tx
[8E 9C 00 00 00 06 01] 06 00 01 03 09 

Rx
[8E 9C 00 00 00 06 01] 06 00 01 03 09 

word write ok
Tx
[EC 57 00 00 00 06 01] 06 00 02 03 09 

Rx
[EC 57 00 00 00 06 01] 06 00 02 03 09 

word write ok
Tx
[E5 AA 00 00 00 06 01] 06 00 03 03 09 

Rx
[E5 AA 00 00 00 06 01] 06 00 03 03 09 

word write ok
Tx
[FE FA 00 00 00 06 01] 06 00 04 03 09 

Rx
[FE FA 00 00 00 06 01] 06 00 04 03 09 

word write ok
Tx
[85 C0 00 00 00 06 01] 06 00 05 03 09 

Rx
[85 C0 00 00 00 06 01] 06 00 05 03 09 

word write ok
Tx
[65 6B 00 00 00 06 01] 06 00 06 03 09 

Rx
[65 6B 00 00 00 06 01] 06 00 06 03 09 

word write ok
Tx
[00 B4 00 00 00 06 01] 06 00 07 03 09 

Rx
[00 B4 00 00 00 06 01] 06 00 07 03 09 

word write ok
Tx
[00 FE 00 00 00 06 01] 06 00 08 03 09 

Rx
[00 FE 00 00 00 06 01] 06 00 08 03 09 

word write ok
Tx
[24 10 00 00 00 06 01] 06 00 09 03 09 

Rx
[24 10 00 00 00 06 01] 06 00 09 03 09 

word write ok
Tx
[0F 26 00 00 00 06 01] 06 00 0A 03 09 

Rx
[0F 26 00 00 00 06 01] 06 00 0A 03 09 

word write ok
Tx
[15 C5 00 00 00 06 01] 06 00 0B 03 09 

Rx
[15 C5 00 00 00 06 01] 06 00 0B 03 09 

word write ok
Tx
[D3 3A 00 00 00 06 01] 06 00 0C 03 09 

Rx
[D3 3A 00 00 00 06 01] 06 00 0C 03 09 

word write ok
Tx
[C7 81 00 00 00 06 01] 06 00 0D 03 09 

Rx
[C7 81 00 00 00 06 01] 06 00 0D 03 09 

word write ok
Tx
[AC 29 00 00 00 06 01] 06 00 0E 03 09 

Rx
[AC 29 00 00 00 06 01] 06 00 0E 03 09 

word write ok
Tx
[E6 78 00 00 00 06 01] 06 00 0F 03 09 

Rx
[E6 78 00 00 00 06 01] 06 00 0F 03 09 

word write ok
Tx
[90 78 00 00 00 06 01] 06 00 10 03 09 

Rx
[90 78 00 00 00 06 01] 06 00 10 03 09 

word write ok
Tx
[B7 B6 00 00 00 06 01] 06 00 11 03 09 

Rx
[B7 B6 00 00 00 06 01] 06 00 11 03 09 

word write ok
Tx
[7B 86 00 00 00 06 01] 06 00 12 03 09 

Rx
[7B 86 00 00 00 06 01] 06 00 12 03 09 

word write ok
Tx
[C6 3C 00 00 00 06 01] 06 00 13 03 09 

Rx
[C6 3C 00 00 00 06 01] 06 00 13 03 09 

word write ok
Tx
[5D D6 00 00 00 06 01] 06 00 14 03 09 

Rx
[5D D6 00 00 00 06 01] 06 00 14 03 09 

word write ok
Tx
[D8 AD 00 00 00 06 01] 06 00 15 03 09 

Rx
[D8 AD 00 00 00 06 01] 06 00 15 03 09 

word write ok
Tx
[DB 8C 00 00 00 06 01] 06 00 16 03 09 

Rx
[DB 8C 00 00 00 06 01] 06 00 16 03 09 

word write ok
Tx
[C9 6F 00 00 00 06 01] 06 00 17 03 09 

Rx
[C9 6F 00 00 00 06 01] 06 00 17 03 09 

word write ok
Tx
[B2 25 00 00 00 06 01] 06 00 18 03 09 

Rx
[B2 25 00 00 00 06 01] 06 00 18 03 09 

word write ok
Tx
[F7 8E 00 00 00 06 01] 06 00 19 03 09 

Rx
[F7 8E 00 00 00 06 01] 06 00 19 03 09 

word write ok
Tx
[43 8E 00 00 00 06 01] 06 00 1A 03 09 

Rx
[43 8E 00 00 00 06 01] 06 00 1A 03 09 

word write ok
Tx
[6E 85 00 00 00 06 01] 06 00 1B 03 09 

Rx
[6E 85 00 00 00 06 01] 06 00 1B 03 09 

word write ok
Tx
[F4 30 00 00 00 06 01] 06 00 1C 03 09 

Rx
[F4 30 00 00 00 06 01] 06 00 1C 03 09 

word write ok
Tx
[F7 F2 00 00 00 06 01] 06 00 1D 03 09 

Rx
[F7 F2 00 00 00 06 01] 06 00 1D 03 09 

word write ok
Tx
[06 16 00 00 00 06 01] 06 00 1E 03 09 

Rx
[06 16 00 00 00 06 01] 06 00 1E 03 09 

word write ok
Tx
[C6 3B 00 00 00 06 01] 06 00 1F 03 09 

Rx
[C6 3B 00 00 00 06 01] 06 00 1F 03 09 

word write ok
Tx
[66 52 00 00 00 06 01] 06 00 20 03 09 

Rx
[66 52 00 00 00 06 01] 06 00 20 03 09 

word write ok
Tx
[BB DA 00 00 00 06 01] 06 00 21 03 09 

Rx
[BB DA 00 00 00 06 01] 06 00 21 03 09 

word write ok
Tx
[18 94 00 00 00 06 01] 06 00 22 03 09 

Rx
[18 94 00 00 00 06 01] 06 00 22 03 09 

word write ok
Tx
[54 87 00 00 00 06 01] 06 00 23 03 09 

Rx
[54 87 00 00 00 06 01] 06 00 23 03 09 

word write ok
Tx
[7D 5C 00 00 00 06 01] 06 00 24 03 09 

Rx
[7D 5C 00 00 00 06 01] 06 00 24 03 09 

word write ok
Tx
[B7 FF 00 00 00 06 01] 06 00 25 03 09 

Rx
[B7 FF 00 00 00 06 01] 06 00 25 03 09 

word write ok
Tx
[D3 77 00 00 00 06 01] 06 00 26 03 09 

Rx
[D3 77 00 00 00 06 01] 06 00 26 03 09 

word write ok
Tx
[D0 64 00 00 00 06 01] 06 00 27 03 09 

Rx
[D0 64 00 00 00 06 01] 06 00 27 03 09 

word write ok
###################################################
#REGISTER ADDRESSES FOLLOWING INJECTION ATTEMPTS: #
###################################################
Tx
[2D 01 00 00 00 06 01] 03 00 00 00 28 

Rx
[2D 01 00 00 00 53 01] 03 50 03 09 03 09 03 09 03 09 03 09 03 09 03 09 03 09 03 09 03 09 03 09 03 09 03 09 03 09 03 09 03 09 03 09 03 09 03 09 03 09 03 09 03 09 03 09 03 09 03 09 03 09 03 09 03 09 03 09 03 09 03 09 03 09 03 09 03 09 03 09 03 09 03 09 03 09 03 09 03 09 

values:
  1 (ad 00000):   777
  2 (ad 00001):   777
  3 (ad 00002):   777
  4 (ad 00003):   777
  5 (ad 00004):   777
  6 (ad 00005):   777
  7 (ad 00006):   777
  8 (ad 00007):   777
  9 (ad 00008):   777
 10 (ad 00009):   777
 11 (ad 00010):   777
 12 (ad 00011):   777
 13 (ad 00012):   777
 14 (ad 00013):   777
 15 (ad 00014):   777
 16 (ad 00015):   777
 17 (ad 00016):   777
 18 (ad 00017):   777
 19 (ad 00018):   777
 20 (ad 00019):   777
 21 (ad 00020):   777
 22 (ad 00021):   777
 23 (ad 00022):   777
 24 (ad 00023):   777
 25 (ad 00024):   777
 26 (ad 00025):   777
 27 (ad 00026):   777
 28 (ad 00027):   777
 29 (ad 00028):   777
 30 (ad 00029):   777
 31 (ad 00030):   777
 32 (ad 00031):   777
 33 (ad 00032):   777
 34 (ad 00033):   777
 35 (ad 00034):   777
 36 (ad 00035):   777
 37 (ad 00036):   777
 38 (ad 00037):   777
 39 (ad 00038):   777
 40 (ad 00039):   777
